Arcenis Rojas - Forecasting with {modeltime} - Part V
…
I can see that the 6th model does contain calibration data, so this isn’t the problem. Now I’ll extract the calibration data just for this model to see what’s going on.

Code

hpi_wflowset |>
  filter(city %in% "San Diego") |>
  pluck(".modeltime_tables", 1) |>
  filter(.model_id == 6) |>
  pluck(".calibration_data", 1)

# A tibble: 24 × 4
   date       .actual .prediction .residuals
   <date>       <dbl>       <dbl>      <dbl>
 1 2021-01-01    302.         NA        NA  
 2 2021-02-01    311.         NA        NA  
 3 2021-03-01    321.         NA        NA  
 4 2021-04-01    332.         NA        NA  
 5 2021-05-01    341.         NA        NA  
 6 2021-06-01    350.         NA        NA  
 7 2021-07-01    355.        409.      -53.6
 8 2021-08-01    357.        410.      -53.2
 9 2021-09-01    360.        412.      -51.6
10 2021-10-01    364.        413.      -48.8
# ℹ 14 more rows
…
