Forecasting with {modeltime} - Part IV – Arcenis Rojas
…
Use the training portion of the split object to train the models

8

Set some controls for the model fitting function

9

Stop the parallel cluster from running

Code

hpi_mods |> as_tibble()

# A tibble: 90 × 3
   .model_id .model     .model_desc           
       <int> <list>     <chr>                 
 1         1 <workflow> BASE_REC_ARIMA_DEFAULT
 2         2 <workflow> BASE_REC_ARIMA_SPEC1  
 3         3 <workflow> BASE_REC_ARIMA_SPEC2  
 4         4 <workflow> BASE_REC_ARIMA_SPEC3  
 5         5 <workflow> BASE_REC_ARIMA_SPEC4  
 6         6 <workflow> ECON_REC_ARIMA_DEFAULT
 7         7 <workflow> ECON_REC_ARIMA_SPEC1  
 8         8 <workflow> ECON_REC_ARIMA_SPEC2  
 9         9 <workflow> ECON_REC_ARIMA_SPEC3  
10        10 <workflow> ECON_REC_ARIMA_SPEC4  
# ℹ 80 more rows
…
